eGFP-CG8944,650
eGFP-CG1792,600
eGFP-sens,550
eGFP-pnt,650
eGFP-CHES-1-like,750
eGFP-Hsf,650
eGFP-mam,700
eGFP-ems,650
eGFP-CG5204,650
eGFP-slp2,650
eGFP-CG3163,650
eGFP-Ets97D,650
eGFP-CG4282,600
eGFP-Trl,650
eGFP-Eip78C,500
eGFP-CG11398,600
eGFP-emc,600
eGFP-NC2α,600
eGFP-Smox,550
eGFP-chif,600
eGFP-Mes4,650
eGFP-Ets21C,550
eGFP-HmgD,700
eGFP-pho,650
eGFP-Sry-δ,550
eGFP-pum,700
eGFP-CG9609,650
eGFP-CG7786,650
eGFP-cyc,650
eGFP-CG12236,600
eGFP-fu2,600
eGFP-dm,850
eGFP-Atf3,600
eGFP-Eip75B,550
eGFP-maf-S,600
eGFP-dl,900
yki,600
eGFP-gcm2,600
eGFP-CG31627,600
eGFP-ey,550
eGFP-NK7.1,600
eGFP-CG9876,600
eGFP-sima,600
eGFP-CG16863,550
eGFP-dpn,750
eGFP-tx,600
eGFP-Mad,650
eGFP-pdm3,550
eGFP-toe,650
eGFP-Dad,700
eGFP-Atf-2,600
eGFP-h,550
eGFP-ftz-f1,750
eGFP-gfzf,450
eGFP-Rel,400
eGFP-Pdp1,800
eGFP-her,800
eGFP-Myb,650
eGFP-cnc,550
eGFP-Hr96,600
eGFP-Antp,700
eGFP-br,650
eGFP-CG1647,550
eGFP-Sox14,600
eGFP-Sox102F,600
eGFP-Mio,600
eGFP-Jra,600
eGFP-esn,550
eGFP-CG4854,550
eGFP-GATAd,450
eGFP-Dip3,650
eGFP-zfh2,700
eGFP-pb,700
eGFP-E(z),500
eGFP-topi,550
eGFP-Side,650
eGFP-tio,600
eGFP-Dif,850
eGFP-CG13624,750
eGFP-vri,900
eGFP-foxo,600
eGFP-Neu2,450
eGFP-lilli,600
eGFP-sage,550
eGFP-tup,550
eGFP-crp,550
eGFP-cic,400
eGFP-Max,550
eGFP-Su(H),700
eGFP-brk,600
eGFP-ab,600
eGFP-mod(mdg4),950
eGFP-chn,650
eGFP-corto,400
eGFP-CG18476,450
eGFP-Camta,600
eGFP-dac,550
eGFP-Eip93F,600
eGFP-CG32264,550
eGFP-woc,700
eGFP-repo,650
eGFP-CG10565,500
eGFP-Vsx2,600
eGFP-Hr83,800
eGFP-lbe,500
eGFP-acj6,550
eGFP-psq,1450
eGFP-Hr39,650
eGFP-tai,600
eGFP-shn,650
eGFP-nmo,600
eGFP-insv,550
eGFP-Hnf4,700
eGFP-fd85E,550
eGFP-CG5245,550
eGFP-CG15073,550
eGFP-CG4424,600
eGFP-jim,650
eGFP-sv,500
eGFP-E(spl)m3-HLH,650
eGFP-CG34406,550
eGFP-CG9305,550
eGFP-NC2β,750
eGFP-OdsH,600
eGFP-Met,550
eGFP-CG11762,600
eGFP-Crg-1,550
eGFP-Hr4,550
eGFP-kay,550
eGFP-achi,500
eGFP-gro,750
eGFP-CrebA,350
eGFP-jing,600
eGFP-CG33213,700
eGFP-Hr38,250
eGFP-CG10462,550
eGFP-CG6792,550
eGFP-CG3919,550
eGFP-CG6854,850
eGFP-trh,550
eGFP-cato,500
eGFP-CG10631,500
eGFP-fru,500
eGFP-Lpt,450
eGFP-CG2120,600
eGFP-odd,600
eGFP-Hr51,650
eGFP-CG8089,550
eGFP-CG8359,450
eGFP-Pif1B,500
eGFP-CG1602,550
eGFP-Pif1A,550
eGFP-D19B,550
eGFP-CG7556,500
eGFP-CG18619,600
eGFP-Mnt,1000
eGFP-tin,600
eGFP-CG9727,550
eGFP-lz,600
eGFP-CG7045,550
eGFP-bsh,650
eGFP-CG4318,450
eGFP-Sox15,550
eGFP-Su(var)3-7,650
eGFP-ac,550
eGFP-dsf,600
eGFP-CG32006,500
eGFP-CG8319,550
eGFP-Chrac-16,550
eGFP-jumu,550
eGFP-CG12155,600
CG10147,800
eGFP-CG7368,550
gem,550
CG2678,450
eGFP-CG4820,550
eGFP-HLH54F,650
eGFP-E(var)3-9,550
eGFP-Elba2,500
CG15601,700
Eip74EF,600
usp,150
Hr78,400
CG15479,650
E(spl)m8-HLH,500
lola,550
eGFP-btn,550
eGFP-Six4,500
Nf-YB,550
eGFP-CG31388,550
eGFP-ERR,750
eGFP-ovo,650
eGFP-CG4617,750
CG8388,600
eGFP-Med,700
eGFP-CG8632,500
eGFP-CG10654,600
eGFP-CG30403,550
eGFP-cad,250
eGFP-exex,600
eGFP-CG12104,500
eGFP-lola,350
noc,550
eGFP-Hr46,550
CG8478,250
pros,300
eGFP-oc,550
CG15696,550
CTCF,850
eGFP-Xbp1,750
eGFP-Blimp-1,550
eGFP-EcR,150
eGFP-CG11902,600
eGFP-CG13894,600
Su(var)205,1050
eGFP-CG16815,550
eGFP-bcd,650
eGFP-CG8281,550
eGFP-CG10274,550
eGFP-CG17806,550
eGFP-Dfd,200
eGFP-zen,550
eGFP-CG8301,500
eGFP-Su(var)2-HP2,400
eGFP-CG18764,650
eGFP-CG15269,550
eGFP-E(bx),600
eGFP-CG12391,550
eGFP-dmrt11E,500
eGFP-CG13775,600
eGFP-CG8159,550
eGFP-sd,450
eGFP-CG1832,250
Stat92E,400
eGFP-CG2116,550
Trl,1050
eGFP-Eip74EF,200
eGFP-az2,600
eGFP-eve,600
eGFP-su(Hw),550
eGFP-net,550
h,150
Hr39,150
eGFP-fkh,650
eGFP-Hr78,350
eGFP-ind,600
eGFP-pita,450
eGFP-CG18011,650
eGFP-vfl,600
eGFP-Kr,300
eGFP-org-1,550
eGFP-Usf,550
eGFP-Abd-B,650
cnc,450
Sin3A,600
eGFP-TFAM,500
eGFP-Stat92E,200
eGFP-YL-1,750
lov,150
eGFP-CG11723,600
eGFP-CG34367,550
eGFP-CG12744,600
eGFP-CG7101,600
eGFP-BtbVII,600
eGFP-CG3281,600
eGFP-D1,500
Su(H),200
eGFP-CG33017,650
eGFP-fd96Cb,550
eGFP-Fer2,600
eGFP-CG2875,600
eGFP-Clk,550
eGFP-CG10267,500
eGFP-HmgZ,700
eGFP-Fer1,600
eGFP-CG17802,700
eGFP-Jarid2,700
eGFP-fd59A,550
eGFP-CG8290,600
su(Hw),150
eGFP-dmrt99B,500
eGFP-CG15710,500
eGFP-spab,550
eGFP-CG14711,650
eGFP-BEAF-32,350
pan,450
eGFP-Vsx1,750
bab1,700
eGFP-grn,500
CG33557,550
Lpt,150
psq,650
fru,300
gcm,550
eGFP-CG6654,600
eGFP-N,900
eGFP-wek,750
tll,350
eGFP-CG13204,300
eGFP-CG6765,600
nerfin-1,650
CG11504,500
eGFP-tj,550
CG1603,900
Myc,500
CG13424,600
eGFP-p53,600
eGFP-CG12768,700
eGFP-en,600
eGFP-da,600
eGFP-Su(var)2-10,500
CG14710,500
Sp1,500
Dek,600
eGFP-Snoo,600
eGFP-E(spl)m7-HLH,650
cg,150
eGFP-gsb-n,550
eGFP-CG10979,500
eGFP-fd3F,550
eGFP-CG12299,700
hth,150
abd-A,450
eGFP-CG9817,700
eGFP-bab2,600
CG12769,700
eGFP-CG7745,650
insv,150
eGFP-CG17359,600
eGFP-CrebB,700
eGFP-Oli,550
eGFP-CG1621,600
eGFP-CG13123,550
CG8290,1050
eGFP-CG9948,500
eGFP-CG2202,600
eGFP-unpg,600
hkb,350
eGFP-CG7271,600
eGFP-gl,550
eGFP-CG10431,600
eGFP-Fer3,650
eGFP-Meics,600
eGFP-CG7839,550
Tbp,150
eGFP-CG6276,550
eGFP-CG3065,600
eGFP-run,500
Su(var)3-9,850
eGFP-CG15011,600
EcR,150
eGFP-CoRest,650
eGFP-salr,550
CG2712,600
eGFP-Ssrp,600
eGFP-phol,600
trem,600
Rel,600
eGFP-tll,450
eGFP-Hey,550
eGFP-CG3995,650
eGFP-E(spl)mγ-HLH,550
eGFP-CG12942,550
dsx,450
CG18262,500
eGFP-CG31365,700
eGFP-schlank,600
eGFP-CG13296,650
eGFP-Dp,450
eGFP-rgr,650
grau,550
twi,500
eGFP-fd64A,600
eGFP-scrt,650
eGFP-NfI,650
eGFP-CG4707,650
eGFP-E(spl)mβ-HLH,600
eGFP-CG1529,600
E(spl)mβ-HLH,500
eGFP-ash1,650
CG3032,500
CG17829,550
D19A,550
eGFP-CG7987,850
eGFP-CTCF,550
eGFP-CG9437,550
eGFP-CG1233,650
eGFP-pzg,700
CG30020,500
CG8924,600
Deaf1,450
eGFP-Sry-β,500
eGFP-pfk,650
eGFP-E(spl)m5-HLH,600
eGFP-sqz,650
eGFP-salm,600
tap,600
sug,550
CG17801,650
eGFP-HLHmδ,850
eGFP-CG17912,650
eGFP-CG9139,550
eGFP-slou,600
eGFP-nom,650
eGFP-stwl,700
eGFP-Asciz,500
eGFP-Hmr,650
eGFP-CG16779,600
eGFP-CG7928,600
eGFP-crc,550
eGFP-Bteb2,550
eGFP-lab,650
eGFP-luna,600
eGFP-CG10543,700
eGFP-CG12659,700
D,200
eGFP-CG6813,650
eGFP-PHDP,650
eGFP-nau,650
eGFP-cwo,500
eGFP-ewg,650
eGFP-CG15514,750
eGFP-CG30431,550
eGFP-CG18599,600
eGFP-D,500
eGFP-HHEX,600
Dll,300
eGFP-CG3407,600
eGFP-zf30C,500
eGFP-eyg,600
eGFP-mirr,900
eGFP-CG12071,700
eGFP-CG6254,600
eGFP-CG3838,600
eGFP-CG6683,550
eGFP-ss,950
eGFP-CG5180,550
eGFP-CG17186,550
eGFP-CG1620,700
Ets96B,500
eGFP-kni,550
HLH106,600
eGFP-CG34376,850
eGFP-MTF-1,650
Nf-YC,500
eGFP-bigmax,650
eGFP-CG17181,650
eGFP-caup,700
eGFP-CG14655,500
eGFP-CG9797,700
eGFP-CG10669,500
eGFP-CG17385,750
eGFP-CG17568,650
eGFP-fd102C,550
eGFP-dmrt93B,550
eGFP-CG11617,500
eGFP-CG6808,500
eGFP-l(3)neo38,350
eGFP-CG10209,550
eGFP-CG12219,650
eGFP-Sox100B,500
eGFP-B-H2,650
eGFP-MESR4,800
eGFP-ATbp,600
eGFP-sc,550
eGFP-pad,600
eGFP-CG4328,550
eGFP-Hand,550
eGFP-disco-r,600
eGFP-Lhr,700
eGFP-CG9705,600
eGFP-Hmx,550
eGFP-CG14965,500
