annominer/io/database/mongodb3/MongoDBConnector.class
annominer/ui/web/servlet/TFScan.class
annominer/io/database/ChromosomeDAO.class
annominer/NamedOrientedRegion.class
annominer/io/database/mongodb/MongoDBIterator.class
annominer/io/database/mongodb/MongoDAO.class
annominer/io/database/mongodb2/ChromosomeMongoDAO.class
annominer/Gene.class
annominer/GenomeAnnotationSet.class
annominer/io/database/mongodb3/ChromosomeOfTranscriptsMongoDAO.class
annominer/exceptions/ChromIDException.class
annominer/io/database/mongodb3/GenomeMongoDAO.class
tools/datastructures/list/ListOperations.class
annominer/ui/web/UserTrack.class
annominer/io/database/mongodb3/ChromosomeOfOrientedRegionsMongoDAO.class
annominer/io/database/ChromosomeAssemblyDAO.class
annominer/ui/web/servlet/PeakToGene.class
annominer/io/database/mongodb2/ChromosomeOfOrientedRegionsMongoDAO.class
annominer/io/database/mongodb3/ExperimentMongoDAO.class
annominer/io/file/TSVReader.class
annominer/io/database/mongodb3/DataTrackOfRegionsMongoDAO.class
annominer/GeneCoverage.class
annominer/io/file/TSVWriter.class
annominer/ChromosomeAssembly.class
annominer/EnrichmentResult.class
annominer/io/database/mysql/QueryResult.class
annominer/io/database/mongodb2/DataTrackMongoDAO.class
annominer/math/statistics/Statistics.class
annominer/io/database/mongodb2/ExperimentMongoDAO.class
annominer/Source.class
annominer/Region.class
annominer/Assembly.class
annominer/io/database/mysql/MysqlConnector.class
annominer/io/database/mongodb/TranscriptMongoDAO.class
annominer/io/database/mongodb2/MongoDBConnectorSync.class
annominer/io/database/mongodb3/ChromosomeMongoDAO.class
annominer/io/database/AssemblyDAO.class
annominer/GenomeAnnotation.class
annominer/ExperimentAnnotation.class
annominer/io/database/TranscriptDAO.class
annominer/math/statistics/PValueGenerator.class
annominer/GenomeRegionTrack.class
annominer/io/database/mongodb2/ChromosomeOfTranscriptsMongoDAO.class
annominer/Transcript.class
annominer/exceptions/FileFormatException.class
annominer/io/database/mongodb3/MongoDAO.class
annominer/io/database/mongodb2/DataTrackOfRegionsMongoDAO.class
annominer/io/database/mongodb2/MongoDBConnector.class
tools/datastructures/set/SetOperations.class
annominer/ui/web/servlet/ManageUploads.class
annominer/io/database/mongodb/MongoDBConnector.class
annominer/io/database/mongodb3/ChromosomeOfRegionsMongoDAO.class
annominer/io/database/mongodb3/MongoDBIterator.class
annominer/io/database/mongodb3/AssemblyMongoDAO.class
annominer/io/database/mongodb3/DataTrackMongoDAO.class
annominer/Chromosome.class
annominer/ui/web/UserSessionListener.class
annominer/io/database/mongodb2/MongoDBIterator.class
annominer/GenericChromosome.class
annominer/io/database/mongodb2/MongoDAO.class
annominer/io/database/ExperimentDAO.class
annominer/io/database/mongodb2/ChromosomeOfRegionsMongoDAO.class
annominer/OrientedRegion.class
annominer/DataTrack.class
annominer/io/database/DataTrackDAO.class
annominer/io/database/mongodb2/GenomeMongoDAO.class
